[
  {
    "from": {
      "name": "Microsoft.Win32.Registry",
      "version": "5.0.0"
    },
    "to": {
      "name": "System.Security.AccessControl",
      "version": "5.0.0"
    },
    "range": "5.0.0"
  },
  {
    "from": {
      "name": "Microsoft.Win32.Registry",
      "version": "5.0.0"
    },
    "to": {
      "name": "System.Security.Principal.Windows",
      "version": "5.0.0"
    },
    "range": "5.0.0"
  },
  {
    "from": {
      "name": "Pipelines.Sockets.Unofficial",
      "version": "2.2.0"
    },
    "to": {
      "name": "System.IO.Pipelines",
      "version": "5.0.0"
    },
    "range": "5.0.0"
  },
  {
    "from": {
      "name": "System.Configuration.ConfigurationManager",
      "version": "5.0.0"
    },
    "to": {
      "name": "System.Security.Cryptography.ProtectedData",
      "version": "5.0.0"
    },
    "range": "5.0.0"
  },
  {
    "from": {
      "name": "System.Configuration.ConfigurationManager",
      "version": "5.0.0"
    },
    "to": {
      "name": "System.Security.Permissions",
      "version": "5.0.0"
    },
    "range": "5.0.0"
  },
  {
    "from": {
      "name": "System.Diagnostics.PerformanceCounter",
      "version": "5.0.0"
    },
    "to": {
      "name": "Microsoft.NETCore.Platforms",
      "version": "5.0.0"
    },
    "range": "5.0.0"
  },
  {
    "from": {
      "name": "System.Diagnostics.PerformanceCounter",
      "version": "5.0.0"
    },
    "to": {
      "name": "Microsoft.Win32.Registry",
      "version": "5.0.0"
    },
    "range": "5.0.0"
  },
  {
    "from": {
      "name": "System.Diagnostics.PerformanceCounter",
      "version": "5.0.0"
    },
    "to": {
      "name": "System.Configuration.ConfigurationManager",
      "version": "5.0.0"
    },
    "range": "5.0.0"
  },
  {
    "from": {
      "name": "System.Diagnostics.PerformanceCounter",
      "version": "5.0.0"
    },
    "to": {
      "name": "System.Security.Principal.Windows",
      "version": "5.0.0"
    },
    "range": "5.0.0"
  },
  {
    "from": {
      "name": "System.Security.AccessControl",
      "version": "5.0.0"
    },
    "to": {
      "name": "Microsoft.NETCore.Platforms",
      "version": "5.0.0"
    },
    "range": "5.0.0"
  },
  {
    "from": {
      "name": "System.Security.AccessControl",
      "version": "5.0.0"
    },
    "to": {
      "name": "System.Security.Principal.Windows",
      "version": "5.0.0"
    },
    "range": "5.0.0"
  },
  {
    "from": {
      "name": "Microsoft.Win32.SystemEvents",
      "version": "5.0.0"
    },
    "to": {
      "name": "Microsoft.NETCore.Platforms",
      "version": "5.0.0"
    },
    "range": "5.0.0"
  },
  {
    "from": {
      "name": "Swashbuckle.AspNetCore.SwaggerGen",
      "version": "6.2.3"
    },
    "to": {
      "name": "Swashbuckle.AspNetCore.Swagger",
      "version": "6.2.3"
    },
    "range": "6.2.3"
  },
  {
    "from": {
      "name": "System.Drawing.Common",
      "version": "5.0.0"
    },
    "to": {
      "name": "Microsoft.Win32.SystemEvents",
      "version": "5.0.0"
    },
    "range": "5.0.0"
  },
  {
    "from": {
      "name": "System.Security.Permissions",
      "version": "5.0.0"
    },
    "to": {
      "name": "System.Security.AccessControl",
      "version": "5.0.0"
    },
    "range": "5.0.0"
  },
  {
    "from": {
      "name": "System.Security.Permissions",
      "version": "5.0.0"
    },
    "to": {
      "name": "System.Windows.Extensions",
      "version": "5.0.0"
    },
    "range": "5.0.0"
  },
  {
    "from": {
      "name": "System.Windows.Extensions",
      "version": "5.0.0"
    },
    "to": {
      "name": "System.Drawing.Common",
      "version": "5.0.0"
    },
    "range": "5.0.0"
  },
  {
    "to": {
      "name": "StackExchange.Redis",
      "version": "2.2.88"
    },
    "range": "2.2.88"
  },
  {
    "to": {
      "name": "Swashbuckle.AspNetCore",
      "version": "6.2.3"
    },
    "range": "[6.2.3, )"
  },
  {
    "from": {
      "name": "Swashbuckle.AspNetCore",
      "version": "6.2.3"
    },
    "to": {
      "name": "Microsoft.Extensions.ApiDescription.Server",
      "version": "3.0.0"
    },
    "range": "3.0.0"
  },
  {
    "from": {
      "name": "Swashbuckle.AspNetCore",
      "version": "6.2.3"
    },
    "to": {
      "name": "Swashbuckle.AspNetCore.Swagger",
      "version": "6.2.3"
    },
    "range": "6.2.3"
  },
  {
    "from": {
      "name": "Swashbuckle.AspNetCore",
      "version": "6.2.3"
    },
    "to": {
      "name": "Swashbuckle.AspNetCore.SwaggerGen",
      "version": "6.2.3"
    },
    "range": "6.2.3"
  },
  {
    "from": {
      "name": "Swashbuckle.AspNetCore",
      "version": "6.2.3"
    },
    "to": {
      "name": "Swashbuckle.AspNetCore.SwaggerUI",
      "version": "6.2.3"
    },
    "range": "6.2.3"
  },
  {
    "from": {
      "name": "StackExchange.Redis",
      "version": "2.2.88"
    },
    "to": {
      "name": "Pipelines.Sockets.Unofficial",
      "version": "2.2.0"
    },
    "range": "2.2.0"
  },
  {
    "from": {
      "name": "StackExchange.Redis",
      "version": "2.2.88"
    },
    "to": {
      "name": "System.Diagnostics.PerformanceCounter",
      "version": "5.0.0"
    },
    "range": "5.0.0"
  },
  {
    "from": {
      "name": "Swashbuckle.AspNetCore.Swagger",
      "version": "6.2.3"
    },
    "to": {
      "name": "Microsoft.OpenApi",
      "version": "1.2.3"
    },
    "range": "1.2.3"
  }
]
