[
{"range": "", "version": ""},
{"range": "==2.0.1", "version": ""},
{"range": ">=0.6.3&&<1.0.1", "version": "1.0.0"},
{"range": ">=1.2.3", "version": "1.3.3"},
{"range": ">=1.2.3", "version": "0.0.5"},
{"range": ">=1.3.2,<2.4.11", "version": "1.3.3"},
{"range": ">=1.3.2,<2.4.11", "version": "4.5.7"},
{"range": ">=1.4 <1.4.11||>=1.5 <1.5.6||>=1.6 <1.6.3", "version": "1.6.1"},
{"range": ">=1.4 <1.4.11||>=1.5 <1.5.6||>=1.6 <1.6.3", "version": "1.0"},
{"range": ">=1.4 <1.4.11rc1||>=1.5 <1.5.6||>=1.6 <1.6.3", "version": "1.4.10rc2"},
{"range": ">=1.4 <1.4.11rc1||>=1.5 <1.5.6||>=1.6 <1.6.3", "version": "1.4.11rc2"}
]
