{
  "version": "15.0.7",
  "vulnerabilities": [],
  "scan": {
    "analyzer": {
      "id": "gemnasium-maven",
      "name": "gemnasium-maven",
      "url": "https://gitlab.com/gitlab-org/security-products/analyzers/gemnasium",
      "vendor": {
        "name": "GitLab"
      },
      "version": "4.14.0"
    },
    "scanner": {
      "id": "gemnasium-maven",
      "name": "gemnasium-maven",
      "url": "https://gitlab.com/gitlab-org/security-products/analyzers/gemnasium",
      "vendor": {
        "name": "GitLab"
      },
      "version": "4.14.0"
    },
    "type": "dependency_scanning",
    "start_time": "2024-03-21T17:52:32",
    "end_time": "2024-03-21T18:00:40",
    "status": "success"
  }
}
