[
  {
    "name": "com.fasterxml.jackson.core/jackson-databind",
    "version": "2.12.3"
  },
  {
    "name": "org.jetbrains.kotlinx/kotlinx-coroutines-core",
    "version": "1.1.1"
  },
  {
    "name": "com.github.wumpz/diffutils",
    "version": "2.2"
  },
  {
    "name": "org.eclipse.jgit/org.eclipse.jgit",
    "version": "4.4.1.201607150455-r"
  },
  {
    "name": "org.apiguardian/apiguardian-api",
    "version": "1.0.0"
  },
  {
    "name": "org.junit.platform/junit-platform-launcher",
    "version": "1.4.0"
  },
  {
    "name": "io.mockk/mockk",
    "version": "1.9.1"
  },
  {
    "name": "net.bytebuddy/byte-buddy",
    "version": "1.9.3"
  },
  {
    "name": "org.ow2.asm/asm",
    "version": "7.2"
  },
  {
    "name": "org.jetbrains.kotlinx/kotlinx-coroutines-core",
    "version": "1.3.8"
  },
  {
    "name": "org.jetbrains.kotlin/kotlin-reflect",
    "version": "1.3.31"
  },
  {
    "name": "org.jetbrains.kotlin/kotlin-stdlib-jdk7",
    "version": "1.3.11"
  },
  {
    "name": "com.github.ajalt/mordant",
    "version": "1.2.1"
  },
  {
    "name": "org.jetbrains/annotations",
    "version": "13.0"
  },
  {
    "name": "org.objenesis/objenesis",
    "version": "2.6"
  },
  {
    "name": "org.junit.platform/junit-platform-engine",
    "version": "1.4.0"
  },
  {
    "name": "io.mockk/mockk-dsl",
    "version": "1.9.1"
  },
  {
    "name": "io.mockk/mockk-agent-api",
    "version": "1.9.1"
  },
  {
    "name": "org.jetbrains.kotlin/kotlin-reflect",
    "version": "1.5.10"
  },
  {
    "name": "org.jetbrains.kotlin/kotlin-scripting-jvm",
    "version": "1.5.10"
  },
  {
    "name": "com.fasterxml.jackson.core/jackson-core",
    "version": "2.12.3"
  },
  {
    "name": "org.hamcrest/hamcrest-core",
    "version": "1.3"
  },
  {
    "name": "commons-io/commons-io",
    "version": "2.6"
  },
  {
    "name": "io.kotlintest/kotlintest-runner-junit5",
    "version": "3.4.0"
  },
  {
    "name": "org.jacoco/org.jacoco.ant",
    "version": "0.8.5"
  },
  {
    "name": "org.jacoco/org.jacoco.report",
    "version": "0.8.5"
  },
  {
    "name": "org.jetbrains.kotlin/kotlin-stdlib-common",
    "version": "1.5.10"
  },
  {
    "name": "org.jetbrains.kotlinx/kotlinx-coroutines-core-common",
    "version": "1.1.1"
  },
  {
    "name": "io.arrow-kt/arrow-core-extensions",
    "version": "0.9.0"
  },
  {
    "name": "org.opentest4j/opentest4j",
    "version": "1.1.1"
  },
  {
    "name": "org.jetbrains.kotlin/kotlin-daemon-embeddable",
    "version": "1.5.10"
  },
  {
    "name": "org.jetbrains.kotlin/kotlin-scripting-common",
    "version": "1.5.10"
  },
  {
    "name": "org.jetbrains.kotlin/kotlin-stdlib",
    "version": "1.5.10"
  },
  {
    "name": "com.fasterxml.jackson.core/jackson-annotations",
    "version": "2.12.3"
  },
  {
    "name": "io.kotlintest/kotlintest-assertions",
    "version": "3.4.0"
  },
  {
    "name": "io.arrow-kt/arrow-annotations",
    "version": "0.9.0"
  },
  {
    "name": "io.arrow-kt/arrow-typeclasses",
    "version": "0.9.0"
  },
  {
    "name": "io.kotlintest/kotlintest-runner-console",
    "version": "3.4.0"
  },
  {
    "name": "com.github.ajalt/colormath",
    "version": "1.2.0"
  },
  {
    "name": "org.jetbrains.kotlin/kotlin-scripting-compiler-embeddable",
    "version": "1.5.10"
  },
  {
    "name": "io.mockk/mockk-agent-common",
    "version": "1.9.1"
  },
  {
    "name": "org.jetbrains.kotlin/kotlin-test",
    "version": "1.5.10"
  },
  {
    "name": "io.kindedj/kindedj",
    "version": "1.1.0"
  },
  {
    "name": "io.kotlintest/kotlintest-extensions",
    "version": "3.4.0"
  },
  {
    "name": "io.mockk/mockk-dsl-jvm",
    "version": "1.9.1"
  },
  {
    "name": "org.jacoco/org.jacoco.agent",
    "version": "0.8.5"
  },
  {
    "name": "org.ow2.asm/asm-commons",
    "version": "7.2"
  },
  {
    "name": "org.jetbrains.intellij.deps/trove4j",
    "version": "1.0.20181211"
  },
  {
    "name": "org.jetbrains.kotlin/kotlin-klib-commonizer-embeddable",
    "version": "1.5.10"
  },
  {
    "name": "net.sourceforge.argparse4j/argparse4j",
    "version": "0.8.1"
  },
  {
    "name": "org.junit.platform/junit-platform-commons",
    "version": "1.4.0"
  },
  {
    "name": "org.junit.platform/junit-platform-suite-api",
    "version": "1.4.0"
  },
  {
    "name": "io.mockk/mockk-common",
    "version": "1.9.1"
  },
  {
    "name": "org.jetbrains.kotlin/kotlin-script-runtime",
    "version": "1.5.10"
  },
  {
    "name": "com.fasterxml.jackson/jackson-bom",
    "version": "2.12.3"
  },
  {
    "name": "org.jetbrains.kotlin/kotlin-test-junit",
    "version": "1.5.10"
  },
  {
    "name": "org.slf4j/slf4j-api",
    "version": "1.7.25"
  },
  {
    "name": "org.jacoco/org.jacoco.core",
    "version": "0.8.5"
  },
  {
    "name": "io.arrow-kt/arrow-core-data",
    "version": "0.9.0"
  },
  {
    "name": "org.ow2.asm/asm-analysis",
    "version": "7.2"
  },
  {
    "name": "junit/junit",
    "version": "4.13.1"
  },
  {
    "name": "io.kotlintest/kotlintest-core",
    "version": "3.4.0"
  },
  {
    "name": "com.univocity/univocity-parsers",
    "version": "2.8.1"
  },
  {
    "name": "io.mockk/mockk-agent-jvm",
    "version": "1.9.1"
  },
  {
    "name": "net.bytebuddy/byte-buddy-agent",
    "version": "1.9.3"
  },
  {
    "name": "org.ow2.asm/asm-tree",
    "version": "7.2"
  },
  {
    "name": "org.jetbrains.kotlin/kotlin-compiler-embeddable",
    "version": "1.5.10"
  },
  {
    "name": "io.kotlintest/kotlintest-runner-jvm",
    "version": "3.4.0"
  },
  {
    "name": "io.github.classgraph/classgraph",
    "version": "4.8.1"
  },
  {
    "name": "org.jetbrains.kotlin/kotlin-scripting-compiler-impl-embeddable",
    "version": "1.5.10"
  }
]
