{
  "version": "15.0.4",
  "vulnerabilities": [
    {
      "id": "663757bbab45e6097c9f00ce2fc35ac9bf527cf48dfbecfddc3d9017bfa2dff6",
      "name": "Improper Input Validation",
      "description": "Decamelize uses regular expressions to evaluate a string and takes unescaped separator values, which can be used to create a denial of service attack.",
      "severity": "High",
      "solution": "Upgrade to version 1.1.2 or above.",
      "location": {
        "file": "package-lock.json",
        "dependency": {
          "package": {
            "name": "decamelize"
          },
          "version": "1.1.1"
        }
      },
      "identifiers": [
        {
          "type": "gemnasium",
          "name": "Gemnasium-cfa05151-753f-4373-833c-a27e772c87a2",
          "value": "cfa05151-753f-4373-833c-a27e772c87a2",
          "url": "https://gitlab.com/gitlab-org/security-products/gemnasium-db/-/blob/v1.2.142/npm/decamelize/CVE-2017-16023.yml"
        },
        {
          "type": "cve",
          "name": "CVE-2017-16023",
          "value": "CVE-2017-16023",
          "url": "https://cve.mitre.org/cgi-bin/cvename.cgi?name=CVE-2017-16023"
        }
      ],
      "links": [
        {
          "url": "https://nvd.nist.gov/vuln/detail/CVE-2017-16023"
        }
      ],
      "details": {
        "vulnerable_package": {
          "type": "text",
          "name": "Vulnerable Package",
          "value": "decamelize:1.1.1"
        }
      }
    },
    {
      "id": "d46af1f7b1632f82d8e06019879d18f17b7fe0d31a1763214364df139da5af8e",
      "name": "Regular Expression Denial of Service",
      "description": "Decamelize uses regular expressions to evaluate a string and takes unescaped separator values, which can be used to create a denial of service attack.",
      "severity": "Unknown",
      "solution": "Upgrade to version 1.1.2 or later.",
      "location": {
        "file": "package-lock.json",
        "dependency": {
          "package": {
            "name": "decamelize"
          },
          "version": "1.1.1"
        }
      },
      "identifiers": [
        {
          "type": "gemnasium",
          "name": "Gemnasium-980f208d-a755-46f3-8bac-4decf4c48f56",
          "value": "980f208d-a755-46f3-8bac-4decf4c48f56",
          "url": "https://gitlab.com/gitlab-org/security-products/gemnasium-db/-/blob/v1.2.142/npm/decamelize/GMS-2015-53.yml"
        }
      ],
      "links": [
        {
          "url": "https://github.com/sindresorhus/decamelize/issues/5"
        },
        {
          "url": "https://nodesecurity.io/advisories/308"
        }
      ],
      "details": {
        "vulnerable_package": {
          "type": "text",
          "name": "Vulnerable Package",
          "value": "decamelize:1.1.1"
        }
      }
    }
  ],
  "scan": {
    "analyzer": {
      "id": "gemnasium",
      "name": "Gemnasium",
      "url": "https://gitlab.com/gitlab-org/security-products/analyzers/gemnasium",
      "vendor": {
        "name": "GitLab"
      },
      "version": "4.0.1"
    },
    "scanner": {
      "id": "gemnasium",
      "name": "Gemnasium",
      "url": "https://gitlab.com/gitlab-org/security-products/analyzers/gemnasium",
      "vendor": {
        "name": "GitLab"
      },
      "version": "4.0.1"
    },
    "type": "dependency_scanning",
    "start_time": "2023-05-17T23:01:46",
    "end_time": "2023-05-17T23:01:50",
    "status": "success"
  }
}
