{
  "bomFormat": "CycloneDX",
  "specVersion": "1.4",
  "serialNumber": "urn:uuid:652f6758-7cd3-4b9a-909b-7d80a03822ab",
  "version": 1,
  "metadata": {
    "timestamp": "2023-05-17T23:01:46Z",
    "tools": [
      {
        "vendor": "GitLab",
        "name": "Gemnasium",
        "version": "4.0.1"
      }
    ],
    "authors": [
      {
        "name": "GitLab",
        "email": "support@gitlab.com"
      }
    ],
    "properties": [
      {
        "name": "gitlab:dependency_scanning:input_file:path",
        "value": "package-lock.json"
      },
      {
        "name": "gitlab:dependency_scanning:package_manager:name",
        "value": "npm"
      },
      {
        "name": "gitlab:meta:schema_version",
        "value": "1"
      }
    ]
  },
  "components": [
    {
      "name": "decamelize",
      "version": "1.1.1",
      "purl": "pkg:npm/decamelize@1.1.1",
      "type": "library",
      "bom-ref": "pkg:npm/decamelize@1.1.1"
    },
    {
      "name": "package-b",
      "version": "1.0.0",
      "purl": "pkg:npm/package-b@1.0.0",
      "type": "library",
      "bom-ref": "pkg:npm/package-b@1.0.0"
    },
    {
      "name": "package-c",
      "version": "1.0.0",
      "purl": "pkg:npm/package-c@1.0.0",
      "type": "library",
      "bom-ref": "pkg:npm/package-c@1.0.0"
    }
  ]
}
