{
  "version": "15.0.4",
  "vulnerabilities": [],
  "scan": {
    "analyzer": {
      "id": "gemnasium",
      "name": "Gemnasium",
      "url": "https://gitlab.com/gitlab-org/security-products/analyzers/gemnasium",
      "vendor": {
        "name": "GitLab"
      },
      "version": "4.7.0"
    },
    "scanner": {
      "id": "gemnasium",
      "name": "Gemnasium",
      "url": "https://gitlab.com/gitlab-org/security-products/analyzers/gemnasium",
      "vendor": {
        "name": "GitLab"
      },
      "version": "4.7.0"
    },
    "type": "dependency_scanning",
    "start_time": "2023-10-24T23:01:56",
    "end_time": "2023-10-24T23:01:58",
    "status": "success"
  }
}
