{
  "version": "15.0.4",
  "vulnerabilities": [],
  "scan": {
    "analyzer": {
      "id": "gemnasium-maven",
      "name": "gemnasium-maven",
      "url": "https://gitlab.com/gitlab-org/security-products/analyzers/gemnasium",
      "vendor": {
        "name": "GitLab"
      },
      "version": "3.6.0"
    },
    "scanner": {
      "id": "gemnasium-maven",
      "name": "gemnasium-maven",
      "url": "https://gitlab.com/gitlab-org/security-products/analyzers/gemnasium",
      "vendor": {
        "name": "GitLab"
      },
      "version": "2.27.4"
    },
    "type": "dependency_scanning",
    "start_time": "2022-03-21T04:09:28",
    "end_time": "2022-03-21T04:09:47",
    "status": "success"
  }
}
