digraph "dependency-graph" {
    graph[rankdir="LR"]
    edge [
        arrowtail="none"
    ]
    "com.example:hello_2.12:0.1.0-SNAPSHOT"[label=<com.example<BR/><B>hello_2.12</B><BR/>0.1.0-SNAPSHOT>]
    "org.apache.geode:geode-core:1.1.1"[label=<org.apache.geode<BR/><B>geode-core</B><BR/>1.1.1>]
    "org.apache.geode:geode-json:1.1.1"[label=<org.apache.geode<BR/><B>geode-json</B><BR/>1.1.1>]
    "org.apache.geode:geode-common:1.1.1"[label=<org.apache.geode<BR/><B>geode-common</B><BR/>1.1.1>]
    "org.apache.shiro:shiro-core:1.3.1"[label=<org.apache.shiro<BR/><B>shiro-core</B><BR/>1.3.1>]
    "commons-beanutils:commons-beanutils:1.8.3"[label=<commons-beanutils<BR/><B>commons-beanutils</B><BR/>1.8.3>]
    "com.example:hello_2.12:0.1.0-SNAPSHOT" -> "org.apache.geode:geode-core:1.1.1"
    "org.apache.geode:geode-core:1.1.1" -> "org.apache.geode:geode-json:1.1.1"
    "org.apache.geode:geode-core:1.1.1" -> "org.apache.geode:geode-common:1.1.1"
    "org.apache.geode:geode-core:1.1.1" -> "org.apache.shiro:shiro-core:1.3.1"
    "org.apache.shiro:shiro-core:1.3.1" -> "commons-beanutils:commons-beanutils:1.8.3"
}
