{
  "version": "15.0.4",
  "vulnerabilities": [
    {
      "id": "780a124057ac233160b8dc81ce5e92dc54d93d9b070cd27cb2450781369de149",
      "name": "Deserialization of Untrusted Data",
      "description": "A deserialization of untrusted data vulnernerability exists in rails, rails that can allow an attacker to unmarshal user-provided objects in MemCacheStore and RedisCacheStore potentially resulting in an RCE.",
      "severity": "Critical",
      "solution": "Upgrade to versions 5.2.4.3, 6.0.3.1 or above.",
      "location": {
        "file": "Gemfile.lock",
        "dependency": {
          "package": {
            "name": "activesupport"
          },
          "version": "5.1.4"
        }
      },
      "identifiers": [
        {
          "type": "gemnasium",
          "name": "Gemnasium-0bd86a75-852d-40b6-93a4-adbdeeca6f04",
          "value": "0bd86a75-852d-40b6-93a4-adbdeeca6f04",
          "url": "https://gitlab.com/gitlab-org/security-products/gemnasium-db/-/blob/v2.0.481/gem/activesupport/CVE-2020-8165.yml"
        },
        {
          "type": "cve",
          "name": "CVE-2020-8165",
          "value": "CVE-2020-8165",
          "url": "https://cve.mitre.org/cgi-bin/cvename.cgi?name=CVE-2020-8165"
        }
      ],
      "links": [
        {
          "url": "https://nvd.nist.gov/vuln/detail/CVE-2020-8165"
        }
      ],
      "details": {
        "vulnerable_package": {
          "name": "Vulnerable Package",
          "type": "text",
          "value": "activesupport:5.1.4"
        }
      }
    },
    {
      "id": "88335a971138283cdc506c1e1f064f46aa0f131ca973dbc375251d748dcac28b",
      "name": "Bypass of a protection mechanism in libxslt",
      "description": "The libxslt binary, which is included in nokogiri, allows bypass of a protection mechanism because callers of `xsltCheckRead` and `xsltCheckWrite` permit access even upon receiving a -1 error code. `xsltCheckRead` can return -1 for a crafted URL that is not actually invalid and is subsequently loaded.",
      "severity": "Critical",
      "solution": "Upgrade to version 1.2.0 or above.",
      "location": {
        "file": "Gemfile.lock",
        "dependency": {
          "package": {
            "name": "nokogiri"
          },
          "version": "1.6.7.2"
        }
      },
      "identifiers": [
        {
          "type": "gemnasium",
          "name": "Gemnasium-1a2e2e6e-67ba-4142-bfa1-3391f5416e4c",
          "value": "1a2e2e6e-67ba-4142-bfa1-3391f5416e4c",
          "url": "https://gitlab.com/gitlab-org/security-products/gemnasium-db/-/blob/v2.0.481/gem/nokogiri/CVE-2019-11068.yml"
        },
        {
          "type": "cve",
          "name": "CVE-2019-11068",
          "value": "CVE-2019-11068",
          "url": "https://cve.mitre.org/cgi-bin/cvename.cgi?name=CVE-2019-11068"
        }
      ],
      "links": [
        {
          "url": "https://cve.mitre.org/cgi-bin/cvename.cgi?name=CVE-2019-11068"
        },
        {
          "url": "https://github.com/sparklemotion/nokogiri/issues/1892"
        },
        {
          "url": "https://nvd.nist.gov/vuln/detail/CVE-2019-11068"
        },
        {
          "url": "https://people.canonical.com/~ubuntu-security/cve/CVE-2019-11068"
        },
        {
          "url": "https://security-tracker.debian.org/tracker/CVE-2019-11068"
        }
      ],
      "details": {
        "vulnerable_package": {
          "name": "Vulnerable Package",
          "type": "text",
          "value": "nokogiri:1.6.7.2"
        }
      }
    },
    {
      "id": "caaccde0c8bd54f231514fa0d21de9683155d666b48ccd1ad92f196fdfebfd88",
      "name": "libxml2 vulnerabilities",
      "description": "Nokogiri is affected via its dependency libxml2. CVE-2016-4448: Format string vulnerability in libxml2 allows attackers to have unspecified impact via format string specifiers in unknown vectors. CVE-2016-4658: libxml2 allows remote attackers to execute arbitrary code or cause a denial of service (memory corruption) via a crafted XML document. CVE-2016-5131: libxml2 allows remote attackers to cause a denial of service or possibly have unspecified other impact via vectors related to the XPointer range-to function. ",
      "severity": "Critical",
      "solution": "Upgrade to version 1.7.1 or above.",
      "location": {
        "file": "Gemfile.lock",
        "dependency": {
          "package": {
            "name": "nokogiri"
          },
          "version": "1.6.7.2"
        }
      },
      "identifiers": [
        {
          "type": "gemnasium",
          "name": "Gemnasium-208c00fd-0100-4109-9577-79b0a9a63a60",
          "value": "208c00fd-0100-4109-9577-79b0a9a63a60",
          "url": "https://gitlab.com/gitlab-org/security-products/gemnasium-db/-/blob/v2.0.481/gem/nokogiri/CVE-2016-4658.yml"
        },
        {
          "type": "cve",
          "name": "CVE-2016-4658",
          "value": "CVE-2016-4658",
          "url": "https://cve.mitre.org/cgi-bin/cvename.cgi?name=CVE-2016-4658"
        }
      ],
      "links": [
        {
          "url": "http://people.canonical.com/~ubuntu-security/cve/2016/CVE-2016-4448.html"
        },
        {
          "url": "http://people.canonical.com/~ubuntu-security/cve/2016/CVE-2016-4658.html"
        },
        {
          "url": "http://people.canonical.com/~ubuntu-security/cve/2016/CVE-2016-5131.html"
        },
        {
          "url": "https://github.com/sparklemotion/nokogiri/issues/1615"
        }
      ],
      "details": {
        "vulnerable_package": {
          "name": "Vulnerable Package",
          "type": "text",
          "value": "nokogiri:1.6.7.2"
        }
      }
    },
    {
      "id": "02746d6d86409c68fd8473901cbab90bfdf90c1fa91ea19cf15fcdc451485295",
      "name": "Command Injection",
      "description": "A command injection vulnerability in Nokogiri allows commands to be executed in a subprocess via Ruby's `Kernel.open` method. Processes are vulnerable only if the undocumented method `Nokogiri::CSS::Tokenizer#load_file` is being called with unsafe user input as the filename.",
      "severity": "Critical",
      "solution": "Upgrade to version 1.10.4 or above.",
      "location": {
        "file": "Gemfile.lock",
        "dependency": {
          "package": {
            "name": "nokogiri"
          },
          "version": "1.6.7.2"
        }
      },
      "identifiers": [
        {
          "type": "gemnasium",
          "name": "Gemnasium-7e9c16eb-d4ee-4c0a-a3b7-ed88f1ea7125",
          "value": "7e9c16eb-d4ee-4c0a-a3b7-ed88f1ea7125",
          "url": "https://gitlab.com/gitlab-org/security-products/gemnasium-db/-/blob/v2.0.481/gem/nokogiri/CVE-2019-5477.yml"
        },
        {
          "type": "cve",
          "name": "CVE-2019-5477",
          "value": "CVE-2019-5477",
          "url": "https://cve.mitre.org/cgi-bin/cvename.cgi?name=CVE-2019-5477"
        }
      ],
      "links": [
        {
          "url": "https://github.com/sparklemotion/nokogiri/issues/1915"
        },
        {
          "url": "https://nvd.nist.gov/vuln/detail/CVE-2019-5477"
        }
      ],
      "details": {
        "vulnerable_package": {
          "name": "Vulnerable Package",
          "type": "text",
          "value": "nokogiri:1.6.7.2"
        }
      }
    },
    {
      "id": "811183477da0dbe128f0857c5ef68b83ee65878957b59f0a02774b2ad8fc2275",
      "name": "Untrusted Search Path",
      "description": "ruby-ffi has a DLL loading issue which can be hijacked on Windows OS, when a Symbol is used as DLL name instead of a String.",
      "severity": "High",
      "solution": "Upgrade to version 1.9.24 or above.",
      "location": {
        "file": "Gemfile.lock",
        "dependency": {
          "package": {
            "name": "ffi"
          },
          "version": "1.9.21"
        }
      },
      "identifiers": [
        {
          "type": "gemnasium",
          "name": "Gemnasium-8e0cf74f-27fb-41ad-939b-d86940adefa2",
          "value": "8e0cf74f-27fb-41ad-939b-d86940adefa2",
          "url": "https://gitlab.com/gitlab-org/security-products/gemnasium-db/-/blob/v2.0.481/gem/ffi/CVE-2018-1000201.yml"
        },
        {
          "type": "cve",
          "name": "CVE-2018-1000201",
          "value": "CVE-2018-1000201",
          "url": "https://cve.mitre.org/cgi-bin/cvename.cgi?name=CVE-2018-1000201"
        }
      ],
      "links": [
        {
          "url": "https://nvd.nist.gov/vuln/detail/CVE-2018-1000201"
        }
      ],
      "details": {
        "vulnerable_package": {
          "name": "Vulnerable Package",
          "type": "text",
          "value": "ffi:1.9.21"
        }
      }
    },
    {
      "id": "d102c7fb82859f856d03768dc21efd7547223637d9bf11451f0cc829bb1fce0f",
      "name": "Improper Input Validation",
      "description": "In `numbers.c` in libxslt, which is used by nokogiri, an `xsl:number` with certain format strings could lead to an uninitialized read in `xsltNumberFormatInsertNumbers`. This could allow an attacker to discern whether a byte on the stack contains the characters `[AaIi0]`, or any other character.",
      "severity": "High",
      "solution": "Upgrade to version 1.10.5 or above.",
      "location": {
        "file": "Gemfile.lock",
        "dependency": {
          "package": {
            "name": "nokogiri"
          },
          "version": "1.6.7.2"
        }
      },
      "identifiers": [
        {
          "type": "gemnasium",
          "name": "Gemnasium-0f3c3d7c-8e3c-4bc7-8b8d-a3a6703fff7d",
          "value": "0f3c3d7c-8e3c-4bc7-8b8d-a3a6703fff7d",
          "url": "https://gitlab.com/gitlab-org/security-products/gemnasium-db/-/blob/v2.0.481/gem/nokogiri/CVE-2019-13117.yml"
        },
        {
          "type": "cve",
          "name": "CVE-2019-13117",
          "value": "CVE-2019-13117",
          "url": "https://cve.mitre.org/cgi-bin/cvename.cgi?name=CVE-2019-13117"
        }
      ],
      "links": [
        {
          "url": "https://bugs.chromium.org/p/oss-fuzz/issues/detail?id=14471"
        },
        {
          "url": "https://nvd.nist.gov/vuln/detail/CVE-2019-13117"
        }
      ],
      "details": {
        "vulnerable_package": {
          "name": "Vulnerable Package",
          "type": "text",
          "value": "nokogiri:1.6.7.2"
        }
      }
    },
    {
      "id": "13fcb4e55fc1d4957fd52d63f2d0a2aa665f46e347112aab4e25adf5af9d5fd7",
      "name": "Improper Restriction of XML External Entity Reference",
      "description": "Nokogiri is a Rubygem providing HTML, XML, SAX, and Reader parsers with XPath and CSS selector support. In Nokogiri v1.12.4, on JRuby only, the SAX parser resolves external entities by default. Users of Nokogiri on JRuby who parse untrusted documents using any of these classes are affected: Nokogiri::XML::SAX::Parse, Nokogiri::HTML4::SAX::Parser or its alias Nokogiri::HTML::SAX::Parser, Nokogiri::XML::SAX::PushParser, and Nokogiri::HTML4::SAX::PushParser or its alias Nokogiri::HTML::SAX::PushParser. JRuby users should upgrade to Nokogiri.",
      "severity": "High",
      "solution": "Upgrade to version 1.12.5 or above.",
      "location": {
        "file": "Gemfile.lock",
        "dependency": {
          "package": {
            "name": "nokogiri"
          },
          "version": "1.6.7.2"
        }
      },
      "identifiers": [
        {
          "type": "gemnasium",
          "name": "Gemnasium-12fdcdf1-df43-4ca6-a348-51a7837ad1fa",
          "value": "12fdcdf1-df43-4ca6-a348-51a7837ad1fa",
          "url": "https://gitlab.com/gitlab-org/security-products/gemnasium-db/-/blob/v2.0.481/gem/nokogiri/CVE-2021-41098.yml"
        },
        {
          "type": "cve",
          "name": "CVE-2021-41098",
          "value": "CVE-2021-41098",
          "url": "https://cve.mitre.org/cgi-bin/cvename.cgi?name=CVE-2021-41098"
        },
        {
          "type": "ghsa",
          "name": "GHSA-2rr5-8q37-2w7h",
          "value": "GHSA-2rr5-8q37-2w7h",
          "url": "https://github.com/advisories/GHSA-2rr5-8q37-2w7h"
        }
      ],
      "links": [
        {
          "url": "https://nvd.nist.gov/vuln/detail/CVE-2021-41098"
        }
      ],
      "details": {
        "vulnerable_package": {
          "name": "Vulnerable Package",
          "type": "text",
          "value": "nokogiri:1.6.7.2"
        }
      }
    },
    {
      "id": "41a5ea01b24b4d639ca45daa884028d099db32c472dc976ab53960e1da92e65e",
      "name": "Upstream libxslt vulnerabilities",
      "description": "The `xsltAddTextString` function in `transform.c` in libxslt, as used by nokogiri, lacks a check for integer overflow during a size calculation, which allows a remote attacker to perform an out-of-bounds memory write via a crafted HTML page.",
      "severity": "High",
      "solution": "Upgrade to version 1.7.1 or above.",
      "location": {
        "file": "Gemfile.lock",
        "dependency": {
          "package": {
            "name": "nokogiri"
          },
          "version": "1.6.7.2"
        }
      },
      "identifiers": [
        {
          "type": "gemnasium",
          "name": "Gemnasium-4289ba56-7bdf-4067-8314-1b3209d05948",
          "value": "4289ba56-7bdf-4067-8314-1b3209d05948",
          "url": "https://gitlab.com/gitlab-org/security-products/gemnasium-db/-/blob/v2.0.481/gem/nokogiri/CVE-2017-5029.yml"
        },
        {
          "type": "cve",
          "name": "CVE-2017-5029",
          "value": "CVE-2017-5029",
          "url": "https://cve.mitre.org/cgi-bin/cvename.cgi?name=CVE-2017-5029"
        }
      ],
      "links": [
        {
          "url": "http://www.securityfocus.com/bid/96767"
        },
        {
          "url": "https://crbug.com/676623"
        },
        {
          "url": "https://github.com/sparklemotion/nokogiri/issues/1634"
        },
        {
          "url": "https://nvd.nist.gov/vuln/detail/CVE-2017-5029"
        }
      ],
      "details": {
        "vulnerable_package": {
          "name": "Vulnerable Package",
          "type": "text",
          "value": "nokogiri:1.6.7.2"
        }
      }
    },
    {
      "id": "4e2dd7746d1dbc8727312192b9bbcb5c5b3182d662e92ccbf7f194a6dbe2925e",
      "name": "Improper Restriction of Operations within the Bounds of a Memory Buffer",
      "description": "There is a flaw in the xml entity encoding functionality of libxml2. The most likely impact of this flaw is to application availability, with some potential impact to confidentiality and integrity if an attacker is able to use memory information to further exploit the application.",
      "severity": "High",
      "solution": "Upgrade to version 1.11.4 or above.",
      "location": {
        "file": "Gemfile.lock",
        "dependency": {
          "package": {
            "name": "nokogiri"
          },
          "version": "1.6.7.2"
        }
      },
      "identifiers": [
        {
          "type": "gemnasium",
          "name": "Gemnasium-49b594c4-e5a9-4583-9363-73685f8d790d",
          "value": "49b594c4-e5a9-4583-9363-73685f8d790d",
          "url": "https://gitlab.com/gitlab-org/security-products/gemnasium-db/-/blob/v2.0.481/gem/nokogiri/CVE-2021-3517.yml"
        },
        {
          "type": "cve",
          "name": "CVE-2021-3517",
          "value": "CVE-2021-3517",
          "url": "https://cve.mitre.org/cgi-bin/cvename.cgi?name=CVE-2021-3517"
        }
      ],
      "links": [
        {
          "url": "https://bugzilla.redhat.com/show_bug.cgi?id=1954232"
        },
        {
          "url": "https://nvd.nist.gov/vuln/detail/CVE-2021-3517"
        }
      ],
      "details": {
        "vulnerable_package": {
          "name": "Vulnerable Package",
          "type": "text",
          "value": "nokogiri:1.6.7.2"
        }
      }
    },
    {
      "id": "18d1a3574d919890e520e13c868a18bc1dba387a1a19f1190b29ba532e49478a",
      "name": "Access of Resource Using Incompatible Type (Type Confusion)",
      "description": "Type confusion in `xsltNumberFormatGetMultipleLevel` in libxslt, which is included in nokogiri, could allow attackers to potentially exploit heap corruption via crafted XML data.",
      "severity": "High",
      "solution": "Upgrade to version 1.2.0 or above.",
      "location": {
        "file": "Gemfile.lock",
        "dependency": {
          "package": {
            "name": "nokogiri"
          },
          "version": "1.6.7.2"
        }
      },
      "identifiers": [
        {
          "type": "gemnasium",
          "name": "Gemnasium-66bbb585-09a1-4042-bb63-e57e64568ded",
          "value": "66bbb585-09a1-4042-bb63-e57e64568ded",
          "url": "https://gitlab.com/gitlab-org/security-products/gemnasium-db/-/blob/v2.0.481/gem/nokogiri/CVE-2019-5815.yml"
        },
        {
          "type": "cve",
          "name": "CVE-2019-5815",
          "value": "CVE-2019-5815",
          "url": "https://cve.mitre.org/cgi-bin/cvename.cgi?name=CVE-2019-5815"
        }
      ],
      "links": [
        {
          "url": "https://bugs.chromium.org/p/chromium/issues/detail?id=930663"
        },
        {
          "url": "https://gitlab.gnome.org/GNOME/libxslt/commit/08b62c25871b38d5d573515ca8a065b4b8f64f6b"
        },
        {
          "url": "https://nvd.nist.gov/vuln/detail/CVE-2019-5815"
        }
      ],
      "details": {
        "vulnerable_package": {
          "name": "Vulnerable Package",
          "type": "text",
          "value": "nokogiri:1.6.7.2"
        }
      }
    },
    {
      "id": "c01bf19b3913017cfd46a28e08eddd7833a15d3ea36da9ba6221051c79df77f4",
      "name": "Infinite recursion in parameter entities",
      "description": "The library libxml2, which is included in nokogiri, incorrectly handles certain parameter entities. An attacker can leverage this with specially constructed XML data to cause libxml2 to consume resources, leading to a denial of service.",
      "severity": "High",
      "solution": "Upgrade to version 1.8.1 or above.",
      "location": {
        "file": "Gemfile.lock",
        "dependency": {
          "package": {
            "name": "nokogiri"
          },
          "version": "1.6.7.2"
        }
      },
      "identifiers": [
        {
          "type": "gemnasium",
          "name": "Gemnasium-6a0d56f6-2441-492a-9b14-edb95ac31919",
          "value": "6a0d56f6-2441-492a-9b14-edb95ac31919",
          "url": "https://gitlab.com/gitlab-org/security-products/gemnasium-db/-/blob/v2.0.481/gem/nokogiri/CVE-2017-16932.yml"
        },
        {
          "type": "cve",
          "name": "CVE-2017-16932",
          "value": "CVE-2017-16932",
          "url": "https://cve.mitre.org/cgi-bin/cvename.cgi?name=CVE-2017-16932"
        }
      ],
      "links": [
        {
          "url": "https://cve.mitre.org/cgi-bin/cvename.cgi?name=CVE-2017-16932"
        },
        {
          "url": "https://github.com/sparklemotion/nokogiri/issues/1714"
        },
        {
          "url": "https://people.canonical.com/~ubuntu-security/cve/2017/CVE-2017-16932.html"
        },
        {
          "url": "https://usn.ubuntu.com/usn/usn-3504-1/"
        }
      ],
      "details": {
        "vulnerable_package": {
          "name": "Vulnerable Package",
          "type": "text",
          "value": "nokogiri:1.6.7.2"
        }
      }
    },
    {
      "id": "85135fb2ed092d297848f2bea5dc9a542d2af4e5653bab4b4419c7b0a3443a90",
      "name": "Denial of Service",
      "description": "The libxml2 binary, which is included in nokogiri, incorrectly handles certain files. An attacker can use this issue with specially constructed XML data to cause libxml2 to consume resources, leading to a denial of service. ",
      "severity": "High",
      "solution": "Upgrade to version 1.8.2 or above.",
      "location": {
        "file": "Gemfile.lock",
        "dependency": {
          "package": {
            "name": "nokogiri"
          },
          "version": "1.6.7.2"
        }
      },
      "identifiers": [
        {
          "type": "gemnasium",
          "name": "Gemnasium-78658378-bd8f-4d79-81c8-07c419302426",
          "value": "78658378-bd8f-4d79-81c8-07c419302426",
          "url": "https://gitlab.com/gitlab-org/security-products/gemnasium-db/-/blob/v2.0.481/gem/nokogiri/CVE-2017-15412.yml"
        },
        {
          "type": "cve",
          "name": "CVE-2017-15412",
          "value": "CVE-2017-15412",
          "url": "https://cve.mitre.org/cgi-bin/cvename.cgi?name=CVE-2017-15412"
        }
      ],
      "links": [
        {
          "url": "https://cve.mitre.org/cgi-bin/cvename.cgi?name=CVE-2017-15412"
        },
        {
          "url": "https://github.com/sparklemotion/nokogiri/issues/1714"
        },
        {
          "url": "https://people.canonical.com/~ubuntu-security/cve/2017/CVE-2017-15412.html"
        }
      ],
      "details": {
        "vulnerable_package": {
          "name": "Vulnerable Package",
          "type": "text",
          "value": "nokogiri:1.6.7.2"
        }
      }
    },
    {
      "id": "58b2ee8a4425e8e2fbb7bd4c5fba06626a5596640109ca8de31fb59a652882c4",
      "name": "Denial of service or RCE from libxml2 and libxslt",
      "description": "Nokogiri is affected by series of vulnerabilities in libxml2 and libxslt, which are libraries Nokogiri depends on. It was discovered that libxml2 and libxslt incorrectly handled certain malformed documents, which can allow malicious users to cause issues ranging from denial of service to remote code execution attacks.",
      "severity": "High",
      "solution": "Upgrade to version 1.6.8 or above.",
      "location": {
        "file": "Gemfile.lock",
        "dependency": {
          "package": {
            "name": "nokogiri"
          },
          "version": "1.6.7.2"
        }
      },
      "identifiers": [
        {
          "type": "gemnasium",
          "name": "Gemnasium-988aa1ec-2e90-4cdf-9ed5-0900f3846b70",
          "value": "988aa1ec-2e90-4cdf-9ed5-0900f3846b70",
          "url": "https://gitlab.com/gitlab-org/security-products/gemnasium-db/-/blob/v2.0.481/gem/nokogiri/CVE-2015-8806.yml"
        },
        {
          "type": "cve",
          "name": "CVE-2015-8806",
          "value": "CVE-2015-8806",
          "url": "https://cve.mitre.org/cgi-bin/cvename.cgi?name=CVE-2015-8806"
        }
      ],
      "links": [
        {
          "url": "http://www.ubuntu.com/usn/usn-2994-1/"
        },
        {
          "url": "https://github.com/sparklemotion/nokogiri/commit/03d402212707bd5dfa0a21b7de5e91a7f9d90028"
        },
        {
          "url": "https://github.com/sparklemotion/nokogiri/issues/1473"
        },
        {
          "url": "https://mail.gnome.org/archives/xml/2016-May/msg00023.html"
        }
      ],
      "details": {
        "vulnerable_package": {
          "name": "Vulnerable Package",
          "type": "text",
          "value": "nokogiri:1.6.7.2"
        }
      }
    },
    {
      "id": "5f060b9a6dadd8e4c1694152bba46bf099a75739dbd27f8e93fb87b0543c4a1f",
      "name": "Loop with Unreachable Exit Condition (Infinite Loop)",
      "description": "`xmlStringLenDecodeEntities` in `parser.c` in libxml2 has an infinite loop in a certain end-of-file situation.",
      "severity": "High",
      "solution": "Upgrade to version 1.10.8 or above.",
      "location": {
        "file": "Gemfile.lock",
        "dependency": {
          "package": {
            "name": "nokogiri"
          },
          "version": "1.6.7.2"
        }
      },
      "identifiers": [
        {
          "type": "gemnasium",
          "name": "Gemnasium-a50aefc9-9e11-4696-bf0c-e4d0dc418f0b",
          "value": "a50aefc9-9e11-4696-bf0c-e4d0dc418f0b",
          "url": "https://gitlab.com/gitlab-org/security-products/gemnasium-db/-/blob/v2.0.481/gem/nokogiri/CVE-2020-7595.yml"
        },
        {
          "type": "cve",
          "name": "CVE-2020-7595",
          "value": "CVE-2020-7595",
          "url": "https://cve.mitre.org/cgi-bin/cvename.cgi?name=CVE-2020-7595"
        }
      ],
      "links": [
        {
          "url": "https://nvd.nist.gov/vuln/detail/CVE-2020-7595"
        }
      ],
      "details": {
        "vulnerable_package": {
          "name": "Vulnerable Package",
          "type": "text",
          "value": "nokogiri:1.6.7.2"
        }
      }
    },
    {
      "id": "5dae111370c704bb53d2dc66fb657f1a054b690c07ecab4505a8542c73904652",
      "name": "NULL Pointer Dereference",
      "description": "A NULL pointer dereference vulnerability exists in the xpath.c:xmlXPathCompOpEval() function of libxml2 when parsing an invalid XPath expression in the XPATH_OP_AND or XPATH_OP_OR case. Applications processing untrusted XSL format inputs with the use of the libxml2 library may be vulnerable to a denial of service attack due to a crash of the application.",
      "severity": "High",
      "solution": "Upgrade to version 1.8.5 or above.",
      "location": {
        "file": "Gemfile.lock",
        "dependency": {
          "package": {
            "name": "nokogiri"
          },
          "version": "1.6.7.2"
        }
      },
      "identifiers": [
        {
          "type": "gemnasium",
          "name": "Gemnasium-a96ed9d3-2bdf-4faa-895d-17d44e07b009",
          "value": "a96ed9d3-2bdf-4faa-895d-17d44e07b009",
          "url": "https://gitlab.com/gitlab-org/security-products/gemnasium-db/-/blob/v2.0.481/gem/nokogiri/CVE-2018-14404.yml"
        },
        {
          "type": "cve",
          "name": "CVE-2018-14404",
          "value": "CVE-2018-14404",
          "url": "https://cve.mitre.org/cgi-bin/cvename.cgi?name=CVE-2018-14404"
        }
      ],
      "links": [
        {
          "url": "https://access.redhat.com/errata/RHSA-2019:1543"
        },
        {
          "url": "https://bugs.debian.org/cgi-bin/bugreport.cgi?bug=901817"
        },
        {
          "url": "https://bugzilla.redhat.com/show_bug.cgi?id=1595985"
        },
        {
          "url": "https://gitlab.gnome.org/GNOME/libxml2/issues/10"
        },
        {
          "url": "https://lists.debian.org/debian-lts-announce/2018/09/msg00035.html"
        },
        {
          "url": "https://lists.debian.org/debian-lts-announce/2020/09/msg00009.html"
        },
        {
          "url": "https://nvd.nist.gov/vuln/detail/CVE-2018-14404"
        },
        {
          "url": "https://security.netapp.com/advisory/ntap-20190719-0002/"
        },
        {
          "url": "https://usn.ubuntu.com/3739-1/"
        },
        {
          "url": "https://usn.ubuntu.com/3739-2/"
        }
      ],
      "details": {
        "vulnerable_package": {
          "name": "Vulnerable Package",
          "type": "text",
          "value": "nokogiri:1.6.7.2"
        }
      }
    },
    {
      "id": "bac29312d26397629fe51253e424c41d8788a93101976d8fa1e93678ba0f002e",
      "name": "Use After Free",
      "description": "There's a flaw in libxml2. An attacker who is able to submit a crafted file to be processed by an application linked with libxml2 could trigger a use-after-free. The greatest impact from this flaw is to confidentiality, integrity, and availability.",
      "severity": "High",
      "solution": "Upgrade to version 1.11.4 or above.",
      "location": {
        "file": "Gemfile.lock",
        "dependency": {
          "package": {
            "name": "nokogiri"
          },
          "version": "1.6.7.2"
        }
      },
      "identifiers": [
        {
          "type": "gemnasium",
          "name": "Gemnasium-b6e457a9-b284-48ad-9490-312492552a0e",
          "value": "b6e457a9-b284-48ad-9490-312492552a0e",
          "url": "https://gitlab.com/gitlab-org/security-products/gemnasium-db/-/blob/v2.0.481/gem/nokogiri/CVE-2021-3518.yml"
        },
        {
          "type": "cve",
          "name": "CVE-2021-3518",
          "value": "CVE-2021-3518",
          "url": "https://cve.mitre.org/cgi-bin/cvename.cgi?name=CVE-2021-3518"
        }
      ],
      "links": [
        {
          "url": "https://bugzilla.redhat.com/show_bug.cgi?id=1954242"
        },
        {
          "url": "https://nvd.nist.gov/vuln/detail/CVE-2021-3518"
        }
      ],
      "details": {
        "vulnerable_package": {
          "name": "Vulnerable Package",
          "type": "text",
          "value": "nokogiri:1.6.7.2"
        }
      }
    },
    {
      "id": "75ebfb2ac4c6c938726c9e45f029839102c143d45ae0ef5b6030253c78a0f838",
      "name": "Improper Input Validation",
      "description": "In `numbers.c` in libxslt, which is used by nokogiri, a type holding grouping characters of an `xsl:number` instruction was too narrow and an invalid character/length combination could be passed to `xsltNumberFormatDecimal`, leading to a read of uninitialized stack data.",
      "severity": "High",
      "solution": "Upgrade to version 1.10.5 or above.",
      "location": {
        "file": "Gemfile.lock",
        "dependency": {
          "package": {
            "name": "nokogiri"
          },
          "version": "1.6.7.2"
        }
      },
      "identifiers": [
        {
          "type": "gemnasium",
          "name": "Gemnasium-e81fe131-f92b-4449-bc54-ca2baa35b06f",
          "value": "e81fe131-f92b-4449-bc54-ca2baa35b06f",
          "url": "https://gitlab.com/gitlab-org/security-products/gemnasium-db/-/blob/v2.0.481/gem/nokogiri/CVE-2019-13118.yml"
        },
        {
          "type": "cve",
          "name": "CVE-2019-13118",
          "value": "CVE-2019-13118",
          "url": "https://cve.mitre.org/cgi-bin/cvename.cgi?name=CVE-2019-13118"
        }
      ],
      "links": [
        {
          "url": "https://nvd.nist.gov/vuln/detail/CVE-2019-13118"
        }
      ],
      "details": {
        "vulnerable_package": {
          "name": "Vulnerable Package",
          "type": "text",
          "value": "nokogiri:1.6.7.2"
        }
      }
    },
    {
      "id": "d61763b149c6326c7f5373d2cb93fc726c7321a625a6f78cd12b5e4a2ed3550b",
      "name": "Use After Free",
      "description": "In `xsltCopyText` in `transform.c` in libxslt, which is used by nokogiri, a pointer variable isn't reset under certain circumstances. If the relevant memory area happened to be freed and reused in a certain way, a bounds check could fail and memory outside a buffer could be written to, or uninitialized data could be disclosed.",
      "severity": "High",
      "solution": "Upgrade to version 1.10.5 or above.",
      "location": {
        "file": "Gemfile.lock",
        "dependency": {
          "package": {
            "name": "nokogiri"
          },
          "version": "1.6.7.2"
        }
      },
      "identifiers": [
        {
          "type": "gemnasium",
          "name": "Gemnasium-ecf64d0e-4f5c-4ebe-9f3f-c75ea81dc837",
          "value": "ecf64d0e-4f5c-4ebe-9f3f-c75ea81dc837",
          "url": "https://gitlab.com/gitlab-org/security-products/gemnasium-db/-/blob/v2.0.481/gem/nokogiri/CVE-2019-18197.yml"
        },
        {
          "type": "cve",
          "name": "CVE-2019-18197",
          "value": "CVE-2019-18197",
          "url": "https://cve.mitre.org/cgi-bin/cvename.cgi?name=CVE-2019-18197"
        }
      ],
      "links": [
        {
          "url": "https://nvd.nist.gov/vuln/detail/CVE-2019-18197"
        }
      ],
      "details": {
        "vulnerable_package": {
          "name": "Vulnerable Package",
          "type": "text",
          "value": "nokogiri:1.6.7.2"
        }
      }
    },
    {
      "id": "7317e7da3291ee71c6cb65e8c70f5091ceccac86cf356a1aad5f53f61b0c4760",
      "name": "Inconsistent Interpretation of HTTP Requests (HTTP Request Smuggling)",
      "description": " In Puma (RubyGem), a client could smuggle a request through a proxy, causing the proxy to send a response back to another unknown client. If the proxy uses persistent connections and the client adds another request in via HTTP pipelining, the proxy may mistake it as the first request's body. Puma, however, would see it as two requests, and when processing the second request, send back a response that the proxy does not expect. If the proxy has reused the persistent connection to Puma to send another request for a different client, the second response from the first client will be sent to the second client.",
      "severity": "High",
      "solution": "Upgrade to versions 3.12.6, 4.3.5 or above.",
      "location": {
        "file": "Gemfile.lock",
        "dependency": {
          "package": {
            "name": "puma"
          },
          "version": "3.12.0"
        }
      },
      "identifiers": [
        {
          "type": "gemnasium",
          "name": "Gemnasium-1cd16c54-101c-455b-9267-b5e2904acc67",
          "value": "1cd16c54-101c-455b-9267-b5e2904acc67",
          "url": "https://gitlab.com/gitlab-org/security-products/gemnasium-db/-/blob/v2.0.481/gem/puma/CVE-2020-11077.yml"
        },
        {
          "type": "cve",
          "name": "CVE-2020-11077",
          "value": "CVE-2020-11077",
          "url": "https://cve.mitre.org/cgi-bin/cvename.cgi?name=CVE-2020-11077"
        },
        {
          "type": "ghsa",
          "name": "GHSA-w64w-qqph-5gxm",
          "value": "GHSA-w64w-qqph-5gxm",
          "url": "https://github.com/advisories/GHSA-w64w-qqph-5gxm"
        }
      ],
      "links": [
        {
          "url": "https://nvd.nist.gov/vuln/detail/CVE-2020-11077"
        }
      ],
      "details": {
        "vulnerable_package": {
          "name": "Vulnerable Package",
          "type": "text",
          "value": "puma:3.12.0"
        }
      }
    },
    {
      "id": "1b7b969a00351a4422f229f414cb42311ac074b5068954201bd226f6bd04eed3",
      "name": "Inconsistent Interpretation of HTTP Requests (HTTP Request Smuggling)",
      "description": "In Puma (RubyGem), an attacker could smuggle an HTTP response, by using an invalid transfer-encoding header.",
      "severity": "High",
      "solution": "Upgrade to versions 3.12.6, 4.3.5 or above.",
      "location": {
        "file": "Gemfile.lock",
        "dependency": {
          "package": {
            "name": "puma"
          },
          "version": "3.12.0"
        }
      },
      "identifiers": [
        {
          "type": "gemnasium",
          "name": "Gemnasium-3f0a2579-150e-454f-a3d7-2f3e1959be45",
          "value": "3f0a2579-150e-454f-a3d7-2f3e1959be45",
          "url": "https://gitlab.com/gitlab-org/security-products/gemnasium-db/-/blob/v2.0.481/gem/puma/CVE-2020-11076.yml"
        },
        {
          "type": "cve",
          "name": "CVE-2020-11076",
          "value": "CVE-2020-11076",
          "url": "https://cve.mitre.org/cgi-bin/cvename.cgi?name=CVE-2020-11076"
        },
        {
          "type": "ghsa",
          "name": "GHSA-x7jg-6pwg-fx5h",
          "value": "GHSA-x7jg-6pwg-fx5h",
          "url": "https://github.com/advisories/GHSA-x7jg-6pwg-fx5h"
        }
      ],
      "links": [
        {
          "url": "https://nvd.nist.gov/vuln/detail/CVE-2020-11076"
        }
      ],
      "details": {
        "vulnerable_package": {
          "name": "Vulnerable Package",
          "type": "text",
          "value": "puma:3.12.0"
        }
      }
    },
    {
      "id": "df265268425a6fa2fb5cc13b81a5b99467468c5ab605d555acf68cd56f4e5392",
      "name": "Improper Neutralization of CRLF Sequences in HTTP Headers",
      "description": "In Puma (RubyGem), if an application using Puma allows untrusted input in a response header, an attacker can use newline characters (i.e. `CR`, `LF` or`/r`, `/n`) to end the header and inject malicious content, such as additional headers or an entirely new response body. This vulnerability is known as HTTP Response Splitting. While not an attack in itself, response splitting is a vector for several other attacks, such as cross-site scripting (XSS).",
      "severity": "High",
      "solution": "Upgrade to versions 3.12.4, 4.3.3 or above.",
      "location": {
        "file": "Gemfile.lock",
        "dependency": {
          "package": {
            "name": "puma"
          },
          "version": "3.12.0"
        }
      },
      "identifiers": [
        {
          "type": "gemnasium",
          "name": "Gemnasium-66c46af8-8f1d-46c9-be8e-36ee0801fba3",
          "value": "66c46af8-8f1d-46c9-be8e-36ee0801fba3",
          "url": "https://gitlab.com/gitlab-org/security-products/gemnasium-db/-/blob/v2.0.481/gem/puma/CVE-2020-5247.yml"
        },
        {
          "type": "cve",
          "name": "CVE-2020-5247",
          "value": "CVE-2020-5247",
          "url": "https://cve.mitre.org/cgi-bin/cvename.cgi?name=CVE-2020-5247"
        },
        {
          "type": "ghsa",
          "name": "GHSA-84j7-475p-hp8v",
          "value": "GHSA-84j7-475p-hp8v",
          "url": "https://github.com/advisories/GHSA-84j7-475p-hp8v"
        }
      ],
      "links": [
        {
          "url": "https://github.com/puma/puma/security/advisories/GHSA-84j7-475p-hp8v"
        },
        {
          "url": "https://nvd.nist.gov/vuln/detail/CVE-2020-5247"
        },
        {
          "url": "https://www.ruby-lang.org/en/news/2019/10/01/http-response-splitting-in-webrick-cve-2019-16254"
        }
      ],
      "details": {
        "vulnerable_package": {
          "name": "Vulnerable Package",
          "type": "text",
          "value": "puma:3.12.0"
        }
      }
    },
    {
      "id": "13935f6b5ff2eaed8adfd9b4310bd9a0bf5d014c077f58df0f84d7edf26aaced",
      "name": "Uncontrolled Resource Consumption",
      "description": "Puma is a concurrent HTTP server for Ruby/Rack applications. The fix for CVE-2019-16770 was incomplete. The original fix only protected existing connections that had already been accepted from having their requests starved by greedy persistent-connections saturating all threads in the same process. However, new connections may still be starved by greedy persistent-connections saturating all threads in all processes in the cluster. A `puma` server which received more concurrent `keep-alive` connections than the server had threads in its threadpool would service only a subset of connections, denying service to the unserved connections.",
      "severity": "High",
      "solution": "Upgrade to versions 4.3.8, 5.3.1 or above.",
      "location": {
        "file": "Gemfile.lock",
        "dependency": {
          "package": {
            "name": "puma"
          },
          "version": "3.12.0"
        }
      },
      "identifiers": [
        {
          "type": "gemnasium",
          "name": "Gemnasium-67d7904f-cb99-4e74-ad25-73d12e370c4e",
          "value": "67d7904f-cb99-4e74-ad25-73d12e370c4e",
          "url": "https://gitlab.com/gitlab-org/security-products/gemnasium-db/-/blob/v2.0.481/gem/puma/CVE-2021-29509.yml"
        },
        {
          "type": "cve",
          "name": "CVE-2021-29509",
          "value": "CVE-2021-29509",
          "url": "https://cve.mitre.org/cgi-bin/cvename.cgi?name=CVE-2021-29509"
        },
        {
          "type": "ghsa",
          "name": "GHSA-q28m-8xjw-8vr5",
          "value": "GHSA-q28m-8xjw-8vr5",
          "url": "https://github.com/advisories/GHSA-q28m-8xjw-8vr5"
        }
      ],
      "links": [
        {
          "url": "https://nvd.nist.gov/vuln/detail/CVE-2021-29509"
        }
      ],
      "details": {
        "vulnerable_package": {
          "name": "Vulnerable Package",
          "type": "text",
          "value": "puma:3.12.0"
        }
      }
    },
    {
      "id": "4df6d48f4ebaf2e9d8c6149a3ab7f83a1ea8868ed9cd5714ddd8256a420ad9fc",
      "name": "Path Traversal",
      "description": "A directory traversal vulnerability exists in rack that allows an attacker perform directory traversal vulnerability in the `Rack::Directory` app that is bundled with Rack which could result in information disclosure.",
      "severity": "High",
      "solution": "Upgrade to version 2.2.0 or above.",
      "location": {
        "file": "Gemfile.lock",
        "dependency": {
          "package": {
            "name": "rack"
          },
          "version": "2.0.4"
        }
      },
      "identifiers": [
        {
          "type": "gemnasium",
          "name": "Gemnasium-53834578-b5cb-4f46-9607-ce88978e7443",
          "value": "53834578-b5cb-4f46-9607-ce88978e7443",
          "url": "https://gitlab.com/gitlab-org/security-products/gemnasium-db/-/blob/v2.0.481/gem/rack/CVE-2020-8161.yml"
        },
        {
          "type": "cve",
          "name": "CVE-2020-8161",
          "value": "CVE-2020-8161",
          "url": "https://cve.mitre.org/cgi-bin/cvename.cgi?name=CVE-2020-8161"
        }
      ],
      "links": [
        {
          "url": "https://nvd.nist.gov/vuln/detail/CVE-2020-8161"
        }
      ],
      "details": {
        "vulnerable_package": {
          "name": "Vulnerable Package",
          "type": "text",
          "value": "rack:2.0.4"
        }
      }
    },
    {
      "id": "5af496c5daa41ea69edcc609a61455e1a798179e6a9cd6908e15eba2dc496e8d",
      "name": "Improper Input Validation",
      "description": "A reliance on cookies without `validation/integrity` check security vulnerability exists in rack that makes it is possible for an attacker to forge a secure or host-only cookie prefix.",
      "severity": "High",
      "solution": "Upgrade to versions 2.1.4, 2.2.3 or above.",
      "location": {
        "file": "Gemfile.lock",
        "dependency": {
          "package": {
            "name": "rack"
          },
          "version": "2.0.4"
        }
      },
      "identifiers": [
        {
          "type": "gemnasium",
          "name": "Gemnasium-b960a2e0-c5c1-4117-b443-bf772494bcb7",
          "value": "b960a2e0-c5c1-4117-b443-bf772494bcb7",
          "url": "https://gitlab.com/gitlab-org/security-products/gemnasium-db/-/blob/v2.0.481/gem/rack/CVE-2020-8184.yml"
        },
        {
          "type": "cve",
          "name": "CVE-2020-8184",
          "value": "CVE-2020-8184",
          "url": "https://cve.mitre.org/cgi-bin/cvename.cgi?name=CVE-2020-8184"
        }
      ],
      "links": [
        {
          "url": "https://nvd.nist.gov/vuln/detail/CVE-2020-8184"
        }
      ],
      "details": {
        "vulnerable_package": {
          "name": "Vulnerable Package",
          "type": "text",
          "value": "rack:2.0.4"
        }
      }
    },
    {
      "id": "f1be7730d4f446427c747e0cb5b14358eef698707f5ea022acc22b733aff9e8f",
      "name": "Uncontrolled Resource Consumption",
      "description": "There is a possible DoS vulnerability in the multipart parser in Rack. Specially crafted requests can cause the multipart parser to enter a pathological state, causing the parser to use CPU resources disproportionate to the request size.",
      "severity": "High",
      "solution": "Upgrade to version 2.0.6 or above.",
      "location": {
        "file": "Gemfile.lock",
        "dependency": {
          "package": {
            "name": "rack"
          },
          "version": "2.0.4"
        }
      },
      "identifiers": [
        {
          "type": "gemnasium",
          "name": "Gemnasium-fafa07ab-4b63-433a-a2aa-573f542f8f4d",
          "value": "fafa07ab-4b63-433a-a2aa-573f542f8f4d",
          "url": "https://gitlab.com/gitlab-org/security-products/gemnasium-db/-/blob/v2.0.481/gem/rack/CVE-2018-16470.yml"
        },
        {
          "type": "cve",
          "name": "CVE-2018-16470",
          "value": "CVE-2018-16470",
          "url": "https://cve.mitre.org/cgi-bin/cvename.cgi?name=CVE-2018-16470"
        }
      ],
      "links": [
        {
          "url": "https://nvd.nist.gov/vuln/detail/CVE-2018-16470"
        }
      ],
      "details": {
        "vulnerable_package": {
          "name": "Vulnerable Package",
          "type": "text",
          "value": "rack:2.0.4"
        }
      }
    },
    {
      "id": "5451e7e13eb9bdeb4ba9f175117161ac568d0dfe7a2edb6f5dda45ed783950d7",
      "name": "Improper Restriction of XML External Entity Reference",
      "description": "Nokogiri is a Rubygem providing HTML, XML, SAX, and Reader parsers with XPath and CSS selector support. XML Schemas parsed by `Nokogiri::XML::Schema` are trusted by default, allowing external resources to be accessed over the network, potentially enabling XXE or SSRF attacks. This behavior is counter to the security policy followed by Nokogiri maintainers, which is to treat all input as untrusted by default whenever possible.",
      "severity": "Medium",
      "solution": "Upgrade to version 1.11.0 or above.",
      "location": {
        "file": "Gemfile.lock",
        "dependency": {
          "package": {
            "name": "nokogiri"
          },
          "version": "1.6.7.2"
        }
      },
      "identifiers": [
        {
          "type": "gemnasium",
          "name": "Gemnasium-2685fb42-70eb-4e48-9b3a-4a4da34b1df2",
          "value": "2685fb42-70eb-4e48-9b3a-4a4da34b1df2",
          "url": "https://gitlab.com/gitlab-org/security-products/gemnasium-db/-/blob/v2.0.481/gem/nokogiri/CVE-2020-26247.yml"
        },
        {
          "type": "cve",
          "name": "CVE-2020-26247",
          "value": "CVE-2020-26247",
          "url": "https://cve.mitre.org/cgi-bin/cvename.cgi?name=CVE-2020-26247"
        },
        {
          "type": "ghsa",
          "name": "GHSA-vr8q-g5c7-m54m",
          "value": "GHSA-vr8q-g5c7-m54m",
          "url": "https://github.com/advisories/GHSA-vr8q-g5c7-m54m"
        }
      ],
      "links": [
        {
          "url": "https://nvd.nist.gov/vuln/detail/CVE-2020-26247"
        }
      ],
      "details": {
        "vulnerable_package": {
          "name": "Vulnerable Package",
          "type": "text",
          "value": "nokogiri:1.6.7.2"
        }
      }
    },
    {
      "id": "f60558118cf84538c75b32edcfdc019a442f11776cdf45dbc3ecac99e01952b2",
      "name": "Improper Neutralization of Input During Web Page Generation ('Cross-site Scripting')",
      "description": "In the Loofah gem for Ruby, denylisted HTML attributes may occur in sanitized output by republishing a crafted HTML fragment.",
      "severity": "Medium",
      "solution": "Upgrade to version 1.8.3 or above",
      "location": {
        "file": "Gemfile.lock",
        "dependency": {
          "package": {
            "name": "nokogiri"
          },
          "version": "1.6.7.2"
        }
      },
      "identifiers": [
        {
          "type": "gemnasium",
          "name": "Gemnasium-3018fe66-9e8f-4329-8ef9-580f6b496dff",
          "value": "3018fe66-9e8f-4329-8ef9-580f6b496dff",
          "url": "https://gitlab.com/gitlab-org/security-products/gemnasium-db/-/blob/v2.0.481/gem/nokogiri/CVE-2018-8048.yml"
        },
        {
          "type": "cve",
          "name": "CVE-2018-8048",
          "value": "CVE-2018-8048",
          "url": "https://cve.mitre.org/cgi-bin/cvename.cgi?name=CVE-2018-8048"
        }
      ],
      "links": [
        {
          "url": "https://nvd.nist.gov/vuln/detail/CVE-2018-8048"
        }
      ],
      "details": {
        "vulnerable_package": {
          "name": "Vulnerable Package",
          "type": "text",
          "value": "nokogiri:1.6.7.2"
        }
      }
    },
    {
      "id": "450fe55186de05dc5975c925581a33fb80f0502504426c857712f0f5c71aede7",
      "name": "Improper Restriction of Recursive Entity References in DTDs (XML Entity Expansion)",
      "description": "A flaw was found in libxml2. By exploiting an exponential entity expansion attack its possible bypassing all existing protection mechanisms and lead to a denial of service.",
      "severity": "Medium",
      "solution": "Upgrade to version 1.11.4 or above.",
      "location": {
        "file": "Gemfile.lock",
        "dependency": {
          "package": {
            "name": "nokogiri"
          },
          "version": "1.6.7.2"
        }
      },
      "identifiers": [
        {
          "type": "gemnasium",
          "name": "Gemnasium-471dd7bc-90f8-4d7d-b6e8-df068b6fc62f",
          "value": "471dd7bc-90f8-4d7d-b6e8-df068b6fc62f",
          "url": "https://gitlab.com/gitlab-org/security-products/gemnasium-db/-/blob/v2.0.481/gem/nokogiri/CVE-2021-3541.yml"
        },
        {
          "type": "cve",
          "name": "CVE-2021-3541",
          "value": "CVE-2021-3541",
          "url": "https://cve.mitre.org/cgi-bin/cvename.cgi?name=CVE-2021-3541"
        }
      ],
      "links": [
        {
          "url": "https://bugzilla.redhat.com/show_bug.cgi?id=1950515"
        },
        {
          "url": "https://nvd.nist.gov/vuln/detail/CVE-2021-3541"
        }
      ],
      "details": {
        "vulnerable_package": {
          "name": "Vulnerable Package",
          "type": "text",
          "value": "nokogiri:1.6.7.2"
        }
      }
    },
    {
      "id": "ac6d5a72b13b9068a13352d442df9f27d41ad134bf502f5bc407735e0673b20a",
      "name": "NULL Pointer Dereference",
      "description": "A vulnerability found in libxml2 shows that it does not propagate errors while parsing XML mixed content, causing a NULL dereference. If an untrusted XML document was parsed in recovery mode and post-validated, the flaw could be used to crash the application. The highest threat from this vulnerability is to system availability.",
      "severity": "Medium",
      "solution": "Upgrade to version 1.11.4 or above.",
      "location": {
        "file": "Gemfile.lock",
        "dependency": {
          "package": {
            "name": "nokogiri"
          },
          "version": "1.6.7.2"
        }
      },
      "identifiers": [
        {
          "type": "gemnasium",
          "name": "Gemnasium-68d8ab80-3f4a-476f-8284-c277ba9fc486",
          "value": "68d8ab80-3f4a-476f-8284-c277ba9fc486",
          "url": "https://gitlab.com/gitlab-org/security-products/gemnasium-db/-/blob/v2.0.481/gem/nokogiri/CVE-2021-3537.yml"
        },
        {
          "type": "cve",
          "name": "CVE-2021-3537",
          "value": "CVE-2021-3537",
          "url": "https://cve.mitre.org/cgi-bin/cvename.cgi?name=CVE-2021-3537"
        }
      ],
      "links": [
        {
          "url": "https://bugzilla.redhat.com/show_bug.cgi?id=1956522"
        },
        {
          "url": "https://nvd.nist.gov/vuln/detail/CVE-2021-3537"
        }
      ],
      "details": {
        "vulnerable_package": {
          "name": "Vulnerable Package",
          "type": "text",
          "value": "nokogiri:1.6.7.2"
        }
      }
    },
    {
      "id": "947a1159b7b8bfab819bb96a11b49ac4c8346d43ff5b33b70e60b7a5b0000bbf",
      "name": "Out-of-bounds Read",
      "description": "GNOME project libxml2 has a global buffer over-read vulnerability in `xmlEncodeEntitiesInternal` at `libxml2/entities.c`.",
      "severity": "Medium",
      "solution": "Upgrade to version 1.11.4 or above.",
      "location": {
        "file": "Gemfile.lock",
        "dependency": {
          "package": {
            "name": "nokogiri"
          },
          "version": "1.6.7.2"
        }
      },
      "identifiers": [
        {
          "type": "gemnasium",
          "name": "Gemnasium-b02ca54f-a16f-4610-a5ec-72b12f492ebe",
          "value": "b02ca54f-a16f-4610-a5ec-72b12f492ebe",
          "url": "https://gitlab.com/gitlab-org/security-products/gemnasium-db/-/blob/v2.0.481/gem/nokogiri/CVE-2020-24977.yml"
        },
        {
          "type": "cve",
          "name": "CVE-2020-24977",
          "value": "CVE-2020-24977",
          "url": "https://cve.mitre.org/cgi-bin/cvename.cgi?name=CVE-2020-24977"
        }
      ],
      "links": [
        {
          "url": "https://gitlab.gnome.org/GNOME/libxml2/-/commit/50f06b3efb638efb0abd95dc62dca05ae67882c2"
        },
        {
          "url": "https://gitlab.gnome.org/GNOME/libxml2/-/issues/178"
        },
        {
          "url": "https://nvd.nist.gov/vuln/detail/CVE-2020-24977"
        }
      ],
      "details": {
        "vulnerable_package": {
          "name": "Vulnerable Package",
          "type": "text",
          "value": "nokogiri:1.6.7.2"
        }
      }
    },
    {
      "id": "4d7ec6d8feb467e5c7b7e629e3c78cc22e3261ddc0acace7692ce58fbe3d2507",
      "name": "Allocation of Resources Without Limits or Throttling",
      "description": "In Puma, a poorly-behaved client could use keepalive requests to monopolize Puma's reactor and create a denial of service attack. If more keepalive connections to Puma are opened than there are threads available, additional connections will wait permanently if the attacker sends requests frequently enough.",
      "severity": "Medium",
      "solution": "Upgrade to versions 3.12.2, 4.3.1 or above.",
      "location": {
        "file": "Gemfile.lock",
        "dependency": {
          "package": {
            "name": "puma"
          },
          "version": "3.12.0"
        }
      },
      "identifiers": [
        {
          "type": "gemnasium",
          "name": "Gemnasium-855d4255-6625-4349-b9d9-b8df7a97e7f5",
          "value": "855d4255-6625-4349-b9d9-b8df7a97e7f5",
          "url": "https://gitlab.com/gitlab-org/security-products/gemnasium-db/-/blob/v2.0.481/gem/puma/CVE-2019-16770.yml"
        },
        {
          "type": "cve",
          "name": "CVE-2019-16770",
          "value": "CVE-2019-16770",
          "url": "https://cve.mitre.org/cgi-bin/cvename.cgi?name=CVE-2019-16770"
        },
        {
          "type": "ghsa",
          "name": "GHSA-7xx3-m584-x994",
          "value": "GHSA-7xx3-m584-x994",
          "url": "https://github.com/advisories/GHSA-7xx3-m584-x994"
        }
      ],
      "links": [
        {
          "url": "https://nvd.nist.gov/vuln/detail/CVE-2019-16770"
        }
      ],
      "details": {
        "vulnerable_package": {
          "name": "Vulnerable Package",
          "type": "text",
          "value": "puma:3.12.0"
        }
      }
    },
    {
      "id": "8a9dd9737bc1533a03064139d3b74fd8de93b136d435ae48de3dd8c92226f88b",
      "name": "Injection Vulnerability",
      "description": "In Puma (RubyGem), if an application using Puma allows untrusted input in an early-hints header, an attacker can use a carriage return character to end the header and inject malicious content, such as additional headers or an entirely new response body. This vulnerability is known as HTTP Response Splitting. While not an attack in itself, response splitting is a vector for several other attacks, such as cross-site scripting (XSS).",
      "severity": "Medium",
      "solution": "Upgrade to versions 3.12.4, 4.3.3 or above.",
      "location": {
        "file": "Gemfile.lock",
        "dependency": {
          "package": {
            "name": "puma"
          },
          "version": "3.12.0"
        }
      },
      "identifiers": [
        {
          "type": "gemnasium",
          "name": "Gemnasium-9b88f320-c56b-477d-8d32-f99f79147d74",
          "value": "9b88f320-c56b-477d-8d32-f99f79147d74",
          "url": "https://gitlab.com/gitlab-org/security-products/gemnasium-db/-/blob/v2.0.481/gem/puma/CVE-2020-5249.yml"
        },
        {
          "type": "cve",
          "name": "CVE-2020-5249",
          "value": "CVE-2020-5249",
          "url": "https://cve.mitre.org/cgi-bin/cvename.cgi?name=CVE-2020-5249"
        },
        {
          "type": "ghsa",
          "name": "GHSA-84j7-475p-hp8v",
          "value": "GHSA-84j7-475p-hp8v",
          "url": "https://github.com/advisories/GHSA-84j7-475p-hp8v"
        }
      ],
      "links": [
        {
          "url": "https://nvd.nist.gov/vuln/detail/CVE-2020-5249"
        }
      ],
      "details": {
        "vulnerable_package": {
          "name": "Vulnerable Package",
          "type": "text",
          "value": "puma:3.12.0"
        }
      }
    },
    {
      "id": "91fdd33edf348a14c0232962645c147f44a1eb9ac81b94fe309dba39f243aa1c",
      "name": "Path traversal on Windows",
      "description": "Path traversal is possible via backslash characters on Windows. An attacker could access arbitrary files and directories stored on the file system.",
      "severity": "Medium",
      "solution": "Upgrade to version 2.0.1 or above.",
      "location": {
        "file": "Gemfile.lock",
        "dependency": {
          "package": {
            "name": "rack-protection"
          },
          "version": "2.0.0"
        }
      },
      "identifiers": [
        {
          "type": "gemnasium",
          "name": "Gemnasium-fff2cf11-3422-4aaf-b18f-aa30a0f2ae37",
          "value": "fff2cf11-3422-4aaf-b18f-aa30a0f2ae37",
          "url": "https://gitlab.com/gitlab-org/security-products/gemnasium-db/-/blob/v2.0.481/gem/rack-protection/CVE-2018-7212.yml"
        },
        {
          "type": "cve",
          "name": "CVE-2018-7212",
          "value": "CVE-2018-7212",
          "url": "https://cve.mitre.org/cgi-bin/cvename.cgi?name=CVE-2018-7212"
        }
      ],
      "links": [
        {
          "url": "https://github.com/sinatra/rack-protection/pull/120"
        },
        {
          "url": "https://github.com/sinatra/rack-protection/pull/120/commits/4239c2f189a73dfc93e957fc97adcbcbc0ed31c6"
        },
        {
          "url": "https://github.com/sinatra/sinatra/commit/d17aa95f5056c52daf5d7c3170fbfd831dc96381"
        },
        {
          "url": "https://github.com/sinatra/sinatra/pull/1379"
        }
      ],
      "details": {
        "vulnerable_package": {
          "name": "Vulnerable Package",
          "type": "text",
          "value": "rack-protection:2.0.0"
        }
      }
    },
    {
      "id": "bf497b73bd5b1cf057fd859bc2e38104c8a5c357e69d7b37987b602ac4800564",
      "name": "Cross-site Scripting",
      "description": "There is a possible XSS vulnerability in Rack. Carefully crafted requests can impact the data returned by the `scheme` method on `Rack::Request`. Applications that expect the scheme to be limited to HTTP or HTTPS and do not escape the return value could be vulnerable to an XSS attack. Note that applications using the normal escaping mechanisms provided by Rails may not be impacted, but applications that bypass the escaping mechanisms, or do not use them may be vulnerable.",
      "severity": "Medium",
      "solution": "Upgrade to versions 1.6.11, 2.0.6 or above.",
      "location": {
        "file": "Gemfile.lock",
        "dependency": {
          "package": {
            "name": "rack"
          },
          "version": "2.0.4"
        }
      },
      "identifiers": [
        {
          "type": "gemnasium",
          "name": "Gemnasium-effd904a-dbb5-4117-945f-fe7e235d2380",
          "value": "effd904a-dbb5-4117-945f-fe7e235d2380",
          "url": "https://gitlab.com/gitlab-org/security-products/gemnasium-db/-/blob/v2.0.481/gem/rack/CVE-2018-16471.yml"
        },
        {
          "type": "cve",
          "name": "CVE-2018-16471",
          "value": "CVE-2018-16471",
          "url": "https://cve.mitre.org/cgi-bin/cvename.cgi?name=CVE-2018-16471"
        }
      ],
      "links": [
        {
          "url": "https://nvd.nist.gov/vuln/detail/CVE-2018-16471"
        }
      ],
      "details": {
        "vulnerable_package": {
          "name": "Vulnerable Package",
          "type": "text",
          "value": "rack:2.0.4"
        }
      }
    },
    {
      "id": "cb917b5da25b8c6f682a78f090ec4266d12f6a7a23e62fcb8526b95e97edf2ac",
      "name": "Information Exposure",
      "description": "There's a possible information leak / session hijack vulnerability in Rack (RubyGem rack). Attackers may be able to find and hijack sessions by using timing attacks targeting the session id. Session ids are usually stored and indexed in a database that uses some kind of scheme for speeding up lookups of that session id. By carefully measuring the amount of time it takes to look up a session, an attacker may be able to find a valid session id and hijack the session. The session id itself may be generated randomly, but the way the session is indexed by the backing store does not use a secure comparison.",
      "severity": "Medium",
      "solution": "Upgrade to version 2.0.8 or above.",
      "location": {
        "file": "Gemfile.lock",
        "dependency": {
          "package": {
            "name": "rack"
          },
          "version": "2.0.4"
        }
      },
      "identifiers": [
        {
          "type": "gemnasium",
          "name": "Gemnasium-f3c4e135-0d7a-4ab9-a4ef-a331ef23c423",
          "value": "f3c4e135-0d7a-4ab9-a4ef-a331ef23c423",
          "url": "https://gitlab.com/gitlab-org/security-products/gemnasium-db/-/blob/v2.0.481/gem/rack/CVE-2019-16782.yml"
        },
        {
          "type": "cve",
          "name": "CVE-2019-16782",
          "value": "CVE-2019-16782",
          "url": "https://cve.mitre.org/cgi-bin/cvename.cgi?name=CVE-2019-16782"
        },
        {
          "type": "ghsa",
          "name": "GHSA-hrqr-hxpp-chr3",
          "value": "GHSA-hrqr-hxpp-chr3",
          "url": "https://github.com/advisories/GHSA-hrqr-hxpp-chr3"
        }
      ],
      "links": [
        {
          "url": "https://github.com/rack/rack/security/advisories/GHSA-hrqr-hxpp-chr3"
        },
        {
          "url": "https://nvd.nist.gov/vuln/detail/CVE-2019-16782"
        }
      ],
      "details": {
        "vulnerable_package": {
          "name": "Vulnerable Package",
          "type": "text",
          "value": "rack:2.0.4"
        }
      }
    },
    {
      "id": "05babf8ad5f993183853979094baeb084d7e60e4e8ee7c873a1e7c711c7b22dc",
      "name": "Cross-site Scripting",
      "description": "Sidekiq allows XSS via the queue name of the live-poll feature when Internet Explorer is used.",
      "severity": "Medium",
      "solution": "Upgrade to versions 5.2.0, 6.2.1 or above.",
      "location": {
        "file": "Gemfile.lock",
        "dependency": {
          "package": {
            "name": "sidekiq"
          },
          "version": "4.2.10"
        }
      },
      "identifiers": [
        {
          "type": "gemnasium",
          "name": "Gemnasium-60fb002b-6e11-4fa7-a36e-edc2f3388fff",
          "value": "60fb002b-6e11-4fa7-a36e-edc2f3388fff",
          "url": "https://gitlab.com/gitlab-org/security-products/gemnasium-db/-/blob/v2.0.481/gem/sidekiq/CVE-2021-30151.yml"
        },
        {
          "type": "cve",
          "name": "CVE-2021-30151",
          "value": "CVE-2021-30151",
          "url": "https://cve.mitre.org/cgi-bin/cvename.cgi?name=CVE-2021-30151"
        }
      ],
      "links": [
        {
          "url": "https://nvd.nist.gov/vuln/detail/CVE-2021-30151"
        }
      ],
      "details": {
        "vulnerable_package": {
          "name": "Vulnerable Package",
          "type": "text",
          "value": "sidekiq:4.2.10"
        }
      }
    },
    {
      "id": "5230b3f28d48e74a9a7ab143ba01407acae2811f365657837263cebbbecf712f",
      "name": "Cross-site Scripting",
      "description": "Sinatra has XSS via the Bad Request page that occurs upon a params parser exception.",
      "severity": "Medium",
      "solution": "Upgrade to version 2.0.2 or above.",
      "location": {
        "file": "Gemfile.lock",
        "dependency": {
          "package": {
            "name": "sinatra"
          },
          "version": "2.0.0"
        }
      },
      "identifiers": [
        {
          "type": "gemnasium",
          "name": "Gemnasium-5027319e-8131-41e0-b7dc-57f9777c36df",
          "value": "5027319e-8131-41e0-b7dc-57f9777c36df",
          "url": "https://gitlab.com/gitlab-org/security-products/gemnasium-db/-/blob/v2.0.481/gem/sinatra/CVE-2018-11627.yml"
        },
        {
          "type": "cve",
          "name": "CVE-2018-11627",
          "value": "CVE-2018-11627",
          "url": "https://cve.mitre.org/cgi-bin/cvename.cgi?name=CVE-2018-11627"
        }
      ],
      "links": [
        {
          "url": "https://nvd.nist.gov/vuln/detail/CVE-2018-11627"
        }
      ],
      "details": {
        "vulnerable_package": {
          "name": "Vulnerable Package",
          "type": "text",
          "value": "sinatra:2.0.0"
        }
      }
    },
    {
      "id": "fa1d71c041737ec78273bee1a46026e60f2d5fbb9bf8e127a5554a185e1b6813",
      "name": "Path Traversal",
      "description": "An issue was discovered in `rack-protection/lib/rack/protection/path_traversal.rb` in Sinatra on Windows. Path traversal is possible via backslash characters.",
      "severity": "Medium",
      "solution": "Upgrade to version 2.0.2 or above.",
      "location": {
        "file": "Gemfile.lock",
        "dependency": {
          "package": {
            "name": "sinatra"
          },
          "version": "2.0.0"
        }
      },
      "identifiers": [
        {
          "type": "gemnasium",
          "name": "Gemnasium-eed4c5a3-014f-4bbf-b95e-0d393956e75b",
          "value": "eed4c5a3-014f-4bbf-b95e-0d393956e75b",
          "url": "https://gitlab.com/gitlab-org/security-products/gemnasium-db/-/blob/v2.0.481/gem/sinatra/CVE-2018-7212.yml"
        },
        {
          "type": "cve",
          "name": "CVE-2018-7212",
          "value": "CVE-2018-7212",
          "url": "https://cve.mitre.org/cgi-bin/cvename.cgi?name=CVE-2018-7212"
        }
      ],
      "links": [
        {
          "url": "https://github.com/sinatra/sinatra/pull/1379"
        },
        {
          "url": "https://nvd.nist.gov/vuln/detail/CVE-2018-7212"
        }
      ],
      "details": {
        "vulnerable_package": {
          "name": "Vulnerable Package",
          "type": "text",
          "value": "sinatra:2.0.0"
        }
      }
    },
    {
      "id": "77138bfa734afa2d32edef5f9b6261f93c18c46f7479cec52901b97d8c293938",
      "name": "Inconsistent Interpretation of HTTP Requests ('HTTP Request Smuggling')",
      "description": "Puma is a HTTP server for Ruby/Rack applications., using `puma` with a proxy which forwards HTTP header values which contain the LF character could allow HTTP request smuggling. A client could smuggle a request through a proxy, causing the proxy to send a response back to another unknown client. The only proxy which has this behavior, as far as the Puma team is aware of, is Apache Traffic Server. If the proxy uses persistent connections and the client adds another request in via HTTP pipelining, the proxy may mistake it as the first request's body. Puma, however, would see it as two requests, and when processing the second request, send back a response that the proxy does not expect. If the proxy has reused the persistent connection to Puma to send another request for a different client, the second response from the first client will be sent to the second client.",
      "severity": "Low",
      "solution": "Upgrade to versions 4.3.9, 5.5.1 or above.",
      "location": {
        "file": "Gemfile.lock",
        "dependency": {
          "package": {
            "name": "puma"
          },
          "version": "3.12.0"
        }
      },
      "identifiers": [
        {
          "type": "gemnasium",
          "name": "Gemnasium-b40e6f0a-af7b-4191-9236-d4a554ad8cb2",
          "value": "b40e6f0a-af7b-4191-9236-d4a554ad8cb2",
          "url": "https://gitlab.com/gitlab-org/security-products/gemnasium-db/-/blob/v2.0.481/gem/puma/CVE-2021-41136.yml"
        },
        {
          "type": "cve",
          "name": "CVE-2021-41136",
          "value": "CVE-2021-41136",
          "url": "https://cve.mitre.org/cgi-bin/cvename.cgi?name=CVE-2021-41136"
        },
        {
          "type": "ghsa",
          "name": "GHSA-48w2-rm65-62xx",
          "value": "GHSA-48w2-rm65-62xx",
          "url": "https://github.com/advisories/GHSA-48w2-rm65-62xx"
        }
      ],
      "links": [
        {
          "url": "https://nvd.nist.gov/vuln/detail/CVE-2021-41136"
        }
      ],
      "details": {
        "vulnerable_package": {
          "name": "Vulnerable Package",
          "type": "text",
          "value": "puma:3.12.0"
        }
      }
    },
    {
      "id": "e96d67bf6a6477e5aff65d6acac631a580a6e219048bbe3ec42f293a2172a0c1",
      "name": "Vulnerabilities in libxml2",
      "description": "The version of libxml2 packaged with Nokogiri contains several vulnerabilities. Nokogiri has mitigated these issues by upgrading to libxml It was discovered that a type confusion error existed in libxml2. An attacker could use this to specially construct XML data that could cause a denial of service or possibly execute arbitrary code. (CVE-2017-0663) It was discovered that libxml2 did not properly validate parsed entity references. An attacker could use this to specially construct XML data that could expose sensitive information. (CVE-2017-7375) It was discovered that a buffer overflow existed in libxml2 when handling HTTP redirects. An attacker could use this to specially construct XML data that could cause a denial of service or possibly execute arbitrary code. (CVE-2017-7376) Marcel Böhme and Van-Thuan Pham discovered a buffer overflow in libxml2 when handling elements. An attacker could use this to specially construct XML data that could cause a denial of service or possibly execute arbitrary code. (CVE-2017-9047) Marcel Böhme and Van-Thuan Pham discovered a buffer overread in libxml2 when handling elements. An attacker could use this to specially construct XML data that could cause a denial of service. (CVE-2017-9048) Marcel Böhme and Van-Thuan Pham discovered multiple buffer overreads in libxml2 when handling parameter-entity references. An attacker could use these to specially construct XML data that could cause a denial of service. (CVE-2017-9049, CVE-2017-9050)",
      "severity": "Unknown",
      "solution": "Upgrade to version 1.8.1 or above.",
      "location": {
        "file": "Gemfile.lock",
        "dependency": {
          "package": {
            "name": "nokogiri"
          },
          "version": "1.6.7.2"
        }
      },
      "identifiers": [
        {
          "type": "gemnasium",
          "name": "Gemnasium-06565b64-486d-4326-b906-890d9915804d",
          "value": "06565b64-486d-4326-b906-890d9915804d",
          "url": "https://gitlab.com/gitlab-org/security-products/gemnasium-db/-/blob/v2.0.481/gem/nokogiri/USN-3424-1.yml"
        },
        {
          "type": "usn",
          "name": "USN-3424-1",
          "value": "USN-3424-1",
          "url": "https://usn.ubuntu.com/3424-1/"
        }
      ],
      "links": [
        {
          "url": "https://github.com/sparklemotion/nokogiri/issues/1673"
        }
      ],
      "details": {
        "vulnerable_package": {
          "name": "Vulnerable Package",
          "type": "text",
          "value": "nokogiri:1.6.7.2"
        }
      }
    }
  ],
  "scan": {
    "analyzer": {
      "id": "gemnasium",
      "name": "Gemnasium",
      "url": "https://gitlab.com/gitlab-org/security-products/analyzers/gemnasium",
      "vendor": {
        "name": "GitLab"
      },
      "version": "3.6.0"
    },
    "scanner": {
      "id": "gemnasium",
      "name": "Gemnasium",
      "url": "https://gitlab.com/gitlab-org/security-products/analyzers/gemnasium",
      "vendor": {
        "name": "GitLab"
      },
      "version": "2.33.0"
    },
    "type": "dependency_scanning",
    "start_time": "2022-02-16T04:38:12",
    "end_time": "2022-02-16T04:38:14",
    "status": "success"
  }
}
